\relax 
\providecommand\hyper@newdestlabel[2]{}
\providecommand\HyperFirstAtBeginDocument{\AtBeginDocument}
\HyperFirstAtBeginDocument{\ifx\hyper@anchor\@undefined
\global\let\oldcontentsline\contentsline
\gdef\contentsline#1#2#3#4{\oldcontentsline{#1}{#2}{#3}}
\global\let\oldnewlabel\newlabel
\gdef\newlabel#1#2{\newlabelxx{#1}#2}
\gdef\newlabelxx#1#2#3#4#5#6{\oldnewlabel{#1}{{#2}{#3}}}
\AtEndDocument{\ifx\hyper@anchor\@undefined
\let\contentsline\oldcontentsline
\let\newlabel\oldnewlabel
\fi}
\fi}
\global\let\hyper@last\relax 
\gdef\HyperFirstAtBeginDocument#1{#1}
\providecommand\HyField@AuxAddToFields[1]{}
\providecommand\HyField@AuxAddToCoFields[2]{}
\@writefile{toc}{\contentsline {chapter}{\numberline {1}FeedForward Neural Networks}{1}{chapter.1}}
\@writefile{lof}{\addvspace {10\p@ }}
\@writefile{lot}{\addvspace {10\p@ }}
\@writefile{lof}{\contentsline {figure}{\numberline {1.1}{\ignorespaces Deep learning model expressed in the form of a computational graph. Input nodes have as properties a state and child nodes, but no operation, parameters, or parent nodes. Hidden nodes have a state, an operation, parameters, child nodes, and parent nodes. Output nodes have a state, an operation, parameters, parent nodes, but no child nodes.\relax }}{3}{figure.caption.1}}
\@writefile{toc}{\contentsline {subsection}{\numberline {1.0.1}Multi Layer Perceptrons}{4}{subsection.1.0.1}}
\@writefile{toc}{\contentsline {section}{\numberline {1.1}Loss Functions and Output Layers}{5}{section.1.1}}
\@writefile{toc}{\contentsline {subsection}{\numberline {1.1.1}Maximum A Posteriori Loss Function for Classification Problems}{5}{subsection.1.1.1}}
\@writefile{lof}{\contentsline {figure}{\numberline {1.2}{\ignorespaces Multilayer perceptron (MLP) expressed in the form of a computational graph. This MLP has two layers. Each layer consists of a matrix multiplication of the layers weights with the output of the previous layer followed by the application of an activation function $\sigma $. We denote the output of the first operation in a layer with the variable $\textbf  {z}$ and the output of the second operation with the variable $\textbf  {a}$. Note that an operation need not have parameters associated with it, as seen by the $\sigma $ operation nodes.\relax }}{6}{figure.caption.2}}
\newlabel{eq:likelihood}{{1.8}{7}{Maximum A Posteriori Loss Function for Classification Problems}{equation.1.1.8}{}}
\newlabel{eq:likelihood@cref}{{[equation][8][1]1.8}{[1][7][]7}}
\newlabel{eq:mle}{{1.13}{8}{Maximum A Posteriori Loss Function for Classification Problems}{equation.1.1.13}{}}
\newlabel{eq:mle@cref}{{[equation][13][1]1.13}{[1][8][]8}}
\newlabel{eq:log_likelihood}{{1.14}{9}{Maximum A Posteriori Loss Function for Classification Problems}{equation.1.1.14}{}}
\newlabel{eq:log_likelihood@cref}{{[equation][14][1]1.14}{[1][9][]9}}
\newlabel{eq:log_likelihood2}{{1.15}{9}{Maximum A Posteriori Loss Function for Classification Problems}{equation.1.1.15}{}}
\newlabel{eq:log_likelihood2@cref}{{[equation][15][1]1.15}{[1][9][]9}}
\newlabel{eq:log_likelihood2}{{1.16}{9}{Maximum A Posteriori Loss Function for Classification Problems}{equation.1.1.16}{}}
\newlabel{eq:log_likelihood2@cref}{{[equation][16][1]1.16}{[1][9][]9}}
\newlabel{eq:cross_entropy_loss}{{1.17}{10}{Maximum A Posteriori Loss Function for Classification Problems}{equation.1.1.17}{}}
\newlabel{eq:cross_entropy_loss@cref}{{[equation][17][1]1.17}{[1][9][]10}}
\@writefile{toc}{\contentsline {subsection}{\numberline {1.1.2}Output Layer for Classification Problems}{11}{subsection.1.1.2}}
